{
  "users": [
    {
      "id": 1,
      "username": "Translator123",
      "translations": [
        {
          "rawText": "Translate Me",
          "deleted": false
        },
        {
          "rawText": "Translate me too",
          "deleted": false
        }
      ]
    },
    {
      "id": 2,
      "username": "Lost123",
      "translations": [
        {
          "rawText": "Don't Translate Me",
          "deleted": false
        },
        {
          "rawText": "And Translate me too",
          "deleted": false
        }
      ]
    },
    {
      "id": 3,
      "username": "sadsad",
      "translations": []
    },
    {
      "id": 4,
      "username": "asdsad",
      "translations": []
    },
    {
      "id": 5,
      "username": "asdasd",
      "translations": [
        {
          "rawText": "fdsfsdf",
          "deleted": false
        }
      ]
    },
    {
      "id": 6,
      "username": "fdgdfg",
      "translations": [
        {
          "rawText": "gfhfghgfh",
          "deleted": false
        }
      ]
    },
    {
      "id": 7,
      "username": "fdsgdfg",
      "translations": []
    },
    {
      "id": 8,
      "username": "sadasd",
      "translations": []
    },
    {
      "id": 9,
      "username": "fdsfdsf",
      "translations": []
    },
    {
      "id": 10,
      "username": "Translator1234",
      "translations": [
        {
          "rawText": "sadsda",
          "deleted": false
        }
      ]
    },
    {
      "id": 11,
      "username": "Translator123456",
      "translations": [
        {
          "rawText": "asdasd",
          "deleted": false
        }
      ]
    },
    {
      "id": 12,
      "username": "hdhd",
      "translations": [
        {
          "rawText": "sdgsd",
          "deleted": false
        },
        {
          "rawText": "ff",
          "deleted": false
        },
        {
          "rawText": "ffuuuuu",
          "deleted": false
        },
        {
          "rawText": "Hjehej",
          "deleted": false
        },
        {
          "rawText": "asdasd",
          "deleted": false
        },
        {
          "rawText": "dsfdfs",
          "deleted": false
        },
        {
          "rawText": "dsfdfs",
          "deleted": false
        },
        {
          "rawText": "dsfdfs",
          "deleted": false
        },
        {
          "rawText": "dsfdsf",
          "deleted": false
        },
        {
          "rawText": "dsfdsfdf",
          "deleted": false
        },
        {
          "rawText": "dsfdsfdff",
          "deleted": false
        },
        {
          "rawText": "dsfdsfdfff",
          "deleted": false
        },
        {
          "rawText": "abc",
          "deleted": false
        },
        {
          "rawText": "abc",
          "deleted": false
        },
        {
          "rawText": "abc",
          "deleted": false
        }
      ]
    },
    {
      "id": 13,
      "username": "vvxsf",
      "translations": [
        {
          "rawText": "asdsad",
          "deleted": false
        },
        {
          "rawText": "sdfsdf",
          "deleted": false
        }
      ]
    },
    {
      "id": 14,
      "username": "adffsd",
      "translations": [
        {
          "rawText": "asc",
          "deleted": false
        }
      ]
    },
    {
      "id": 15,
      "username": "hej",
      "translations": [
        {
          "rawText": "hejhej",
          "deleted": false
        },
        {
          "rawText": "hejhej",
          "deleted": false
        },
        {
          "rawText": "hejhej",
          "deleted": false
        },
        {
          "rawText": "nej nej",
          "deleted": false
        },
        {
          "rawText": "nejnej nej",
          "deleted": false
        },
        {
          "rawText": "nej nej nej",
          "deleted": false
        },
        {
          "rawText": "nejnej nej",
          "deleted": false
        },
        {
          "rawText": "nej nej nej nej ja",
          "deleted": false
        },
        {
          "rawText": "hej hej me",
          "deleted": false
        },
        {
          "rawText": "e  e e e",
          "deleted": false
        },
        {
          "rawText": "eeee",
          "deleted": false
        },
        {
          "rawText": "eeee",
          "deleted": false
        }
      ]
    }
  ]
}